11.0
11.0.1
11.0.2
11.0.3
11.1
11.1.1
11.1.2
11.1.3
11.1.4
11.1.5
11.1.6
11.1.7
11.1.8
11.1.9
11.2
11.2.1
11.3
11.3.1
11.4
11.4.1
11.4.2
11.4.3
11.4.4
11.4.5
11.4.6
11.5
11.5.1
11.6
11.6.1
11.7
11.7.1
11.7.2
11.8
11.9
12.0
12.0.1
12.1
12.2
12.3
12.3.1
12.4
12.4.1
12.4.2
12.4.3
12.5
12.6
12.6.1
12.7
12.7.1
12.7.2
12.7.3
12.8
12.8.1
12.9
12.9.1
12.9.2
13.0
13.0.1
13.0.2
13.1
13.2
13.2.1
13.2.2
14.0
14.0.1
14.0.2
14.0.3
14.1
14.2
14.3
14.3.1
14.3.2
14.3.3
14.4
14.4.1
14.5
14.5.1
14.6
14.6.1
14.6.2
14.7
14.7.1
15.0
15.0.1
15.0.3
15.0.4
15.0.5
15.1
15.1.1
15.1.2
15.1.3
15.2
15.2.1
15.2.2
15.2.3
15.2.4
15.2.5
15.3
15.3.1
15.3.2
15.4
15.5
15.5.1
15.5.2
15.5.3
15.5.4
15.6
15.6.1
15.6.2
15.7
15.8
15.8.1
15.9
15.9.1
16.0
16.0.1
16.0.2
16.0.3
16.1
16.2
16.2.1
16.2.2
16.3
16.3.1
16.3.2
16.4
16.5
16.6
16.7
16.7.1
16.7.2
16.8
16.9
17.0
17.0.1
17.0.2
17.0.3
17.1
17.2
17.2.1
